IS415-GAA - In-class_Ex10
…
      March 27, 2023

    Modified

      March 27, 2023

pacman::p_load(sp, sf, spdep, GWmodel, tmap, carat, stplanr, reshape2, broom, tidyverse)

odbus <- read_csv("data/aspatial/origin_destination_bus_202210.csv")

odbus$ORIGIN_PT_CODE <- as.factor(odbus$ORIGIN_PT_CODE)
odbus

# A tibble: 5,122,925 × 7
   YEAR_MONTH DAY_TYPE         TIME_PER_HOUR PT_TYPE ORIGIN_PT…¹ DESTI…² TOTAL…³
   <chr>      <chr>                    <dbl> <chr>   <fct>         <dbl>   <dbl>
 1 2022-10    WEEKDAY                     10 BUS     65239         65159       2
 2 2022-10    WEEKENDS/HOLIDAY            10 BUS     65239         65159       1
 3 2022-10    WEEKENDS/HOLIDAY             7 BUS     23519         23311       2
 4 2022-10    WEEKDAY                     11 BUS     52509         42041       1
 5 2022-10    WEEKENDS/HOLIDAY            16 BUS     54349         53241       1
 6 2022-10    WEEKDAY                     16 BUS     54349         53241       4
 7 2022-10    WEEKDAY                     20 BUS     43371         14139       1
 8 2022-10    WEEKENDS/HOLIDAY             7 BUS     84081         92099       3
 9 2022-10    WEEKDAY                      7 BUS     84081         92099       1
10 2022-10    WEEKDAY                     11 BUS     84051         95061       5
# … with 5,122,915 more rows, and abbreviated variable names ¹​ORIGIN_PT_CODE,
#   ²​DESTINATION_PT_CODE, ³​TOTAL_TRIPS
…
