IS415-GAA - In-class_Ex10
…
acc_Hansen <- as_tibble(acc_Hansen)
acc_Hansen

# A tibble: 3,125 × 1
   accHansen
       <dbl>
 1  1.65e-14
 2  1.10e-16
 3  3.87e-17
 4  1.48e-17
 5  1.05e-17
 6  5.08e-18
 7  1.77e-13
 8  9.98e-14
 9  5.67e-14
10  2.62e-14
# … with 3,115 more rows
…
